(export (version D)
  (design
    (source /home/tcrass/devlp/mc/esp8266/robocar/kicad/robocar.sch)
    (date "Tue 19 Jun 2018 11:55:31 AM CEST")
    (tool "Eeschema 4.0.5+dfsg1-4")
    (sheet (number 1) (name /) (tstamps /)
      (title_block
        (title)
        (company)
        (rev)
        (date)
        (source robocar.sch)
        (comment (number 1) (value ""))
        (comment (number 2) (value ""))
        (comment (number 3) (value ""))
        (comment (number 4) (value "")))))
  (components
    (comp (ref U2)
      (value NodeMCU_1.0v3)
      (libsource (lib custom) (part NodeMCU_1.0v3))
      (sheetpath (names /) (tstamps /))
      (tstamp 5975CCBD))
    (comp (ref RL1)
      (value 5ND106-W1)
      (libsource (lib relays) (part RM50-xx11))
      (sheetpath (names /) (tstamps /))
      (tstamp 5975D53A))
    (comp (ref RL2)
      (value 5ND106-W1)
      (libsource (lib relays) (part RM50-xx11))
      (sheetpath (names /) (tstamps /))
      (tstamp 5975D59B))
    (comp (ref Q1)
      (value PN2222A)
      (libsource (lib transistors) (part PN2222A))
      (sheetpath (names /) (tstamps /))
      (tstamp 5975DD44))
    (comp (ref Q2)
      (value PN2222A)
      (libsource (lib transistors) (part PN2222A))
      (sheetpath (names /) (tstamps /))
      (tstamp 5975DDD9))
    (comp (ref R2)
      (value 10k)
      (libsource (lib device) (part R))
      (sheetpath (names /) (tstamps /))
      (tstamp 5975E038))
    (comp (ref R4)
      (value 10k)
      (libsource (lib device) (part R))
      (sheetpath (names /) (tstamps /))
      (tstamp 5975E120))
    (comp (ref R1)
      (value 1k)
      (libsource (lib device) (part R))
      (sheetpath (names /) (tstamps /))
      (tstamp 5975E1B6))
    (comp (ref R3)
      (value 1k)
      (libsource (lib device) (part R))
      (sheetpath (names /) (tstamps /))
      (tstamp 5975E240))
    (comp (ref D1)
      (value 1N4148)
      (libsource (lib device) (part D_ALT))
      (sheetpath (names /) (tstamps /))
      (tstamp 5B28B0E3))
    (comp (ref D2)
      (value 1N4148)
      (libsource (lib device) (part D_ALT))
      (sheetpath (names /) (tstamps /))
      (tstamp 5B28B1DF))
    (comp (ref M1)
      (value Motor_DC)
      (libsource (lib Motor) (part Motor_DC))
      (sheetpath (names /) (tstamps /))
      (tstamp 5B28B0DF))
    (comp (ref U1)
      (value MCP1702)
      (footprint TO_SOT_Packages_THT:TO-92_Inline_Narrow_Oval)
      (libsource (lib regul) (part MCP1700-3302E_TO92))
      (sheetpath (names /) (tstamps /))
      (tstamp 5B28C508))
    (comp (ref C1)
      (value 330µ)
      (libsource (lib device) (part CP))
      (sheetpath (names /) (tstamps /))
      (tstamp 5B28CFB9))
    (comp (ref C2)
      (value 330µ)
      (libsource (lib device) (part CP))
      (sheetpath (names /) (tstamps /))
      (tstamp 5B28D2C4))
    (comp (ref R5)
      (value 1k)
      (libsource (lib device) (part R))
      (sheetpath (names /) (tstamps /))
      (tstamp 5B28D2DC))
    (comp (ref SW1)
      (value SW_SPST)
      (libsource (lib switches) (part SW_SPST))
      (sheetpath (names /) (tstamps /))
      (tstamp 5B28D329)))
  (libparts
    (libpart (lib device) (part CP)
      (description "Polarised capacitor")
      (footprints
        (fp CP_*))
      (fields
        (field (name Reference) C)
        (field (name Value) CP))
      (pins
        (pin (num 1) (name ~) (type passive))
        (pin (num 2) (name ~) (type passive))))
    (libpart (lib device) (part D_ALT)
      (description "Diode, alternativ symbol")
      (footprints
        (fp TO-???*)
        (fp *SingleDiode)
        (fp *_Diode_*)
        (fp *SingleDiode*)
        (fp D_*))
      (fields
        (field (name Reference) D)
        (field (name Value) D_ALT))
      (pins
        (pin (num 1) (name K) (type passive))
        (pin (num 2) (name A) (type passive))))
    (libpart (lib relays) (part FINDER-40.51)
      (aliases
        (alias FINDER-36.11.4001)
        (alias FINDER-40.31)
        (alias RM50-xx11))
      (description "FINDER 40.51, Single Pole Relay, 5mm Pitch, 10A")
      (docs http://gfinder.findernet.com//assets/Series/5/S40EN.pdf)
      (fields
        (field (name Reference) RL)
        (field (name Value) FINDER-40.51))
      (pins
        (pin (num 11) (name ~) (type passive))
        (pin (num 12) (name ~) (type passive))
        (pin (num 14) (name ~) (type passive))
        (pin (num A1) (name ~) (type passive))
        (pin (num A2) (name ~) (type passive))))
    (libpart (lib regul) (part LM79L05_TO92)
      (aliases
        (alias LM79L12_TO92)
        (alias LM79L15_TO92)
        (alias L79L05_TO92)
        (alias L79L08_TO92)
        (alias L79L12_TO92)
        (alias L79L15_TO92)
        (alias MCP1700-3002E_TO92)
        (alias MCP1700-1202E_TO92)
        (alias MCP1700-1802E_TO92)
        (alias MCP1700-2502E_TO92)
        (alias MCP1700-2802E_TO92)
        (alias MCP1700-3302E_TO92)
        (alias MCP1700-5002E_TO92))
      (description "3-Terminal Negative Regulator, -5V, TO-92")
      (docs http://www.ti.com/lit/ds/symlink/lm79l.pdf)
      (footprints
        (fp TO?92*))
      (fields
        (field (name Reference) U)
        (field (name Value) LM79L05_TO92)
        (field (name Footprint) TO_SOT_Packages_THT:TO-92_Inline_Narrow_Oval))
      (pins
        (pin (num 1) (name GND) (type power_in))
        (pin (num 2) (name VI) (type power_in))
        (pin (num 3) (name VO) (type power_out))))
    (libpart (lib Motor) (part Motor_DC)
      (description "DC Motor")
      (footprints
        (fp Pin_Headers:Pin_Header_Straight_1x02)
        (fp Connect:bornier2)
        (fp TerminalBlock*2pol))
      (fields
        (field (name Reference) M)
        (field (name Value) Motor_DC))
      (pins
        (pin (num 1) (name +) (type passive))
        (pin (num 2) (name -) (type passive))))
    (libpart (lib custom) (part NodeMCU_1.0v3)
      (description "NodeMCU 1.0v3")
      (fields
        (field (name Reference) U)
        (field (name Value) NodeMCU_1.0v3))
      (pins
        (pin (num 3V3) (name 3.3V) (type power_in))
        (pin (num A0) (name ADC0/TOUT) (type BiDi))
        (pin (num CLK) (name SCLK/SDCLK) (type unspc))
        (pin (num CMD) (name CS/SDCMD) (type BiDi))
        (pin (num D0) (name WAKE/USER/GPIO16) (type BiDi))
        (pin (num D1) (name GPIO05) (type input))
        (pin (num D2) (name GPIO04) (type BiDi))
        (pin (num D3) (name FLASH/GPIO00) (type power_in))
        (pin (num D4) (name TXD1/GPIO02) (type BiDi))
        (pin (num D5) (name HSCLK/GPIO14) (type BiDi))
        (pin (num D6) (name HMISO/GPIO12) (type BiDi))
        (pin (num D7) (name HMOSI/RXD2/GPIO13) (type BiDi))
        (pin (num D8) (name HCS/TXD2/GPIO15) (type BiDi))
        (pin (num D9) (name RXD0/GPIO03) (type BiDi))
        (pin (num D10) (name TXD0/GPIO01) (type BiDi))
        (pin (num D+) (name DATA+) (type BiDi))
        (pin (num D-) (name DATA-) (type BiDi))
        (pin (num EN) (name EN) (type unspc))
        (pin (num GND) (name GND) (type power_in))
        (pin (num RST) (name RST) (type input))
        (pin (num SD0) (name MISO/SDD0) (type unspc))
        (pin (num SD1) (name MOSI/SDD1) (type BiDi))
        (pin (num SD2) (name GPIO09/SDD2) (type BiDi))
        (pin (num SD3) (name GPIO10/SDD3) (type BiDi))
        (pin (num VCC) (name VCC) (type power_in))
        (pin (num VU) (name VUSB) (type power_out))))
    (libpart (lib transistors) (part PN2222A)
      (description "40V Vce, 1A Ic, NPN, General Purpose Transistor, TO-92")
      (docs http://www.fairchildsemi.com/ds/PN/PN2222A.pdf)
      (footprints
        (fp TO-92*))
      (fields
        (field (name Reference) Q)
        (field (name Value) PN2222A))
      (pins
        (pin (num 1) (name E) (type passive))
        (pin (num 2) (name B) (type input))
        (pin (num 3) (name C) (type passive))))
    (libpart (lib device) (part R)
      (description Resistor)
      (footprints
        (fp R_*)
        (fp R_*))
      (fields
        (field (name Reference) R)
        (field (name Value) R))
      (pins
        (pin (num 1) (name ~) (type passive))
        (pin (num 2) (name ~) (type passive))))
    (libpart (lib switches) (part SW_SPST)
      (description "Single Pole Single Throw (SPST) switch")
      (fields
        (field (name Reference) SW)
        (field (name Value) SW_SPST))
      (pins
        (pin (num 1) (name A) (type input))
        (pin (num 2) (name B) (type input)))))
  (libraries
    (library (logical device)
      (uri /home/tcrass/lib/kicad/kicad4/library/device.lib))
    (library (logical transistors)
      (uri /usr/share/kicad/library/transistors.lib))
    (library (logical regul)
      (uri /home/tcrass/lib/kicad/kicad4/library/regul.lib))
    (library (logical custom)
      (uri /home/tcrass/lib/kicad/custom/custom.lib))
    (library (logical switches)
      (uri /usr/share/kicad/library/switches.lib))
    (library (logical relays)
      (uri /usr/share/kicad/library/relays.lib))
    (library (logical Motor)
      (uri /home/tcrass/lib/kicad/kicad4/library/Motor.lib)))
  (nets
    (net (code 1) (name "Net-(RL1-Pad12)")
      (node (ref RL1) (pin 12)))
    (net (code 2) (name "Net-(D2-Pad1)")
      (node (ref D2) (pin 1))
      (node (ref RL2) (pin A2)))
    (net (code 4) (name "Net-(R2-Pad2)")
      (node (ref R2) (pin 2)))
    (net (code 5) (name "Net-(Q1-Pad1)")
      (node (ref Q1) (pin 1)))
    (net (code 6) (name "Net-(R4-Pad2)")
      (node (ref R4) (pin 2)))
    (net (code 7) (name "Net-(Q2-Pad1)")
      (node (ref Q2) (pin 1)))
    (net (code 8) (name "Net-(RL2-Pad12)")
      (node (ref RL2) (pin 12)))
    (net (code 9) (name "Net-(U2-PadGND)")
      (node (ref U2) (pin GND)))
    (net (code 10) (name "Net-(RL1-Pad14)")
      (node (ref RL1) (pin 14))
      (node (ref RL2) (pin 14)))
    (net (code 11) (name "Net-(D1-Pad1)")
      (node (ref RL1) (pin A2))
      (node (ref D1) (pin 1)))
    (net (code 12) (name "Net-(SW1-Pad2)")
      (node (ref SW1) (pin 2)))
    (net (code 13) (name "Net-(U1-Pad1)")
      (node (ref U1) (pin 1)))
    (net (code 14) (name "Net-(C2-Pad1)")
      (node (ref U1) (pin 3))
      (node (ref U2) (pin 3V3))
      (node (ref C2) (pin 1)))
    (net (code 15) (name "Net-(R5-Pad1)")
      (node (ref U2) (pin D3))
      (node (ref R5) (pin 1)))
    (net (code 16) (name "Net-(R5-Pad2)")
      (node (ref R5) (pin 2))
      (node (ref SW1) (pin 1)))
    (net (code 18) (name "Net-(M1-Pad1)")
      (node (ref RL1) (pin 11))
      (node (ref M1) (pin 1)))
    (net (code 19) (name "Net-(M1-Pad2)")
      (node (ref M1) (pin 2))
      (node (ref RL2) (pin 11)))
    (net (code 20) (name "Net-(C1-Pad2)")
      (node (ref C1) (pin 2)))
    (net (code 21) (name "Net-(C2-Pad2)")
      (node (ref C2) (pin 2)))
    (net (code 22) (name "Net-(D1-Pad2)")
      (node (ref D1) (pin 2))
      (node (ref Q1) (pin 3))
      (node (ref RL1) (pin A1)))
    (net (code 23) (name "Net-(U2-PadSD3)")
      (node (ref U2) (pin SD3)))
    (net (code 24) (name "Net-(U2-PadVCC)")
      (node (ref U2) (pin VCC)))
    (net (code 25) (name "Net-(U2-PadCMD)")
      (node (ref U2) (pin CMD)))
    (net (code 26) (name "Net-(U2-PadCLK)")
      (node (ref U2) (pin CLK)))
    (net (code 27) (name "Net-(U2-PadRST)")
      (node (ref U2) (pin RST)))
    (net (code 28) (name "Net-(U2-PadSD2)")
      (node (ref U2) (pin SD2)))
    (net (code 29) (name "Net-(D2-Pad2)")
      (node (ref D2) (pin 2))
      (node (ref RL2) (pin A1)))
    (net (code 30) (name "Net-(U2-PadD6)")
      (node (ref U2) (pin D6)))
    (net (code 31) (name "Net-(U2-PadD-)")
      (node (ref U2) (pin D-)))
    (net (code 32) (name "Net-(U2-PadA0)")
      (node (ref U2) (pin A0)))
    (net (code 33) (name "Net-(U2-PadD0)")
      (node (ref U2) (pin D0)))
    (net (code 34) (name "Net-(R1-Pad2)")
      (node (ref R1) (pin 2))
      (node (ref U2) (pin D1)))
    (net (code 35) (name "Net-(R3-Pad2)")
      (node (ref R3) (pin 2))
      (node (ref U2) (pin D2)))
    (net (code 36) (name "Net-(U2-PadD4)")
      (node (ref U2) (pin D4)))
    (net (code 37) (name "Net-(U2-PadD5)")
      (node (ref U2) (pin D5)))
    (net (code 38) (name "Net-(U2-PadD7)")
      (node (ref U2) (pin D7)))
    (net (code 39) (name "Net-(U2-PadD8)")
      (node (ref U2) (pin D8)))
    (net (code 40) (name "Net-(U2-PadD9)")
      (node (ref U2) (pin D9)))
    (net (code 41) (name "Net-(U2-PadEN)")
      (node (ref U2) (pin EN)))
    (net (code 42) (name "Net-(U2-PadVU)")
      (node (ref U2) (pin VU)))
    (net (code 43) (name "Net-(U2-PadD10)")
      (node (ref U2) (pin D10)))
    (net (code 44) (name "Net-(U2-PadSD0)")
      (node (ref U2) (pin SD0)))
    (net (code 45) (name "Net-(U2-PadSD1)")
      (node (ref U2) (pin SD1)))
    (net (code 46) (name "Net-(Q1-Pad2)")
      (node (ref Q1) (pin 2))
      (node (ref R1) (pin 1))
      (node (ref R2) (pin 1)))
    (net (code 47) (name "Net-(C1-Pad1)")
      (node (ref U1) (pin 2))
      (node (ref C1) (pin 1)))
    (net (code 48) (name "Net-(Q2-Pad2)")
      (node (ref Q2) (pin 2))
      (node (ref R4) (pin 1))
      (node (ref R3) (pin 1)))
    (net (code 49) (name "Net-(Q2-Pad3)")
      (node (ref Q2) (pin 3)))
    (net (code 50) (name "Net-(U2-PadD+)")
      (node (ref U2) (pin D+)))))